netid,maximum,abadia2,formula
mp0,10,10,
mp1,10,10,
mp2,10,9,
mp2b,2,1.5,
mptot,20,20.4,=2*(C2+C3+C4+C5)/3
fb1-09-26,10,20,
fb2-09-26,10,20,
fb1-09-28,10,10,
fb2-09-28,10,10,
fb1-10-03,10,10,
fb2-10-03,10,10,
prog1,10,9,
fb1-10-05,10,10,
fb2-10-05,10,10,
fb1-10-10,10,10,
fb2-10-10,10,10,
fb1-10-12,10,10,
fb2-10-12,10,10,
fb1-10-17,10,10,
fb2-10-17,10,10,
fb1-10-19,10,10,
fb2-10-19,10,10,
fb1-10-24,10,10,
fb2-10-24,10,10,
prog2,10,6,
fb1-10-26,10,10,
fb2-10-26,10,10,
fb1-10-31,10,10,
fb2-10-31,10,10,
fb1-11-02,10,10,
fb2-11-02,10,10,
fb1-11-07,10,10,
fb2-11-07,10,0,
fb1-11-09,10,10,
fb2-11-09,10,10,
prog3,10,8,
fb1-11-14,10,10,
fb2-11-14,10,10,
prog4,10,9,
presentation,20,15.3,
expected-final,30,25,
fb1-11-30,10,0,
fb2-11-30,10,0,
fbtot,10,10,
prog5,10,10,
progtot,20,18,"num=4; { for i in {3..65}; do printf '%.1f,' $(echo \( $(head -46 scores.csv | grep ^prog. | cut -f${i} -d,| sort -nr | head -${num} | paste -sd+) \) / ${num} \* 2 | bc -ql); done; echo; } | sed 's/\.0//g'"
project,30,0,
FAIR,0,0,
total,100,63.7,"{ for i in {3..65}; do printf '%.1f,' $(egrep 'mptot|fbtot|presentation|progtot|project|FAIR' scores.csv | grep -v total | cut -f${i} -d,| paste -sd+ | bc -ql); done; echo; } | sed 's/\.0//g'"
syllabus,,X,"=IF(C50>=93,""A"",IF(C50>=90,""A-"",IF(C50>=87,""B+"",IF(C50>=83,""B"",IF(C50>=80,""B-"",IF(C50>=77,""C+"",IF(C50>=73, ""C"", IF(C50>=70, ""C-"", ""X""))))))))"
grade,,I,
